#HITDATA
#VERSION
1
#POINT
500,0
250,500
750,500
500,1000
0,1000
1000,1000
#END
#LINE
0,1,0
4,1,1
4,3,2
3,5,2
5,2,1
2,0,0
1,2,2
2,3,2
3,1,2
#END
#ANSER
4,1,3,4,3,5,2,3,1,0,2,1,2,3,5,
#QUEST
0,0,0,0,0,0,0,0,0,0,0,0,0,0,0,
#END
