#HITDATA
#VERSION
1
#POINT
100,500
0,250
0,750
900,500
300,250
700,250
700,750
300,750
1000,250
1000,750
500,500
#END
#LINE
1,0,0
4,0,0
1,2,0
2,0,0
0,7,0
7,6,3
6,3,0
3,9,0
9,8,0
8,3,0
3,5,0
5,4,1
7,4,1
4,10,1
6,5,1
10,5,1
10,7,3
6,10,1
#END
#ANSER
10,7,6,10,5,3,8,9,3,6,5,4,10,7,4,0,1,2,0,7,6,
#QUEST
0,0,0,1,0,0,0,0,0,0,0,0,0,0,0,0,0,0,0,0,0,
#END
