#HITDATA
#VERSION
1
#POINT
70,330
930,330
930,500
70,500
156,500
844,500
761,971
239,971
185,670
815,670
500,670
500,500
500,330
500,214
757,11
670,214
330,214
243,11
446,70
554,70
#END
#LINE
18,17,1
17,16,1
16,13,1
12,13,1
15,13,1
13,18,1
13,19,1
19,14,1
14,15,1
0,12,0
12,1,0
1,2,0
2,5,0
5,11,0
11,4,0
4,3,0
3,0,0
4,8,0
8,7,0
7,6,0
6,9,0
9,5,0
5,10,0
10,4,0
8,10,0
10,9,0
9,11,0
11,8,0
#END
#ANSER
12,0,3,4,11,5,10,4,8,11,9,10,8,7,6,9,5,2,1,12,13,19,14,15,13,18,17,16,13,
#QUEST
0,0,0,0,1,0,0,0,0,0,0,0,0,0,1,0,0,0,0,0,0,0,0,0,0,0,0,0,0,
#END
