#HITDATA
#VERSION
1
#POINT
259,331
985,331
801,88
77,88
77,451
801,451
801,935
985,781
77,935
443,691
259,569
259,812
619,812
619,569
259,451
#END
#LINE
3,0,0
0,4,0
4,14,0
5,1,0
1,2,0
2,3,0
0,1,2
14,0,2
14,5,0
5,6,0
6,7,0
7,1,0
4,8,0
8,6,0
6,12,0
13,12,1
13,5,0
10,13,1
10,4,0
8,11,0
11,10,1
11,12,1
12,9,1
9,11,1
9,10,1
13,9,1
#END
#ANSER
1,5,13,9,10,13,12,6,5,14,0,1,7,6,8,11,12,9,11,10,4,14,0,3,2,1,0,4,8,
#QUEST
0,0,0,0,0,0,0,0,1,0,0,0,0,1,0,0,0,0,0,0,0,0,0,0,0,0,0,0,0,
#END
