#HITDATA
#VERSION
1
#POINT
200,500
800,500
700,400
300,400
300,600
700,600
375,400
625,400
675,350
675,250
625,200
575,250
575,350
425,350
425,250
375,200
325,250
325,350
375,300
625,300
200,700
200,800
800,700
800,800
750,850
250,850
575,775
700,825
425,775
325,825
#END
#LINE
3,6,0
6,7,0
7,2,0
2,1,0
1,5,0
5,4,0
4,0,0
0,3,0
0,1,2
7,8,0
8,9,0
9,10,0
10,11,0
11,12,0
12,7,0
13,6,0
13,14,0
14,15,0
15,16,0
16,17,0
17,6,0
4,20,0
20,21,0
21,25,0
25,24,0
24,23,0
23,22,0
22,5,0
4,28,0
28,29,0
29,20,0
5,26,0
26,27,0
27,22,0
#END
#ANSER
20,29,28,4,20,21,25,24,23,22,5,4,0,1,2,7,8,9,10,11,12,7,6,13,14,15,16,17,6,3,0,1,5,26,27,22,
#QUEST
0,0,0,0,0,0,0,0,0,0,0,0,0,0,0,0,0,0,0,0,0,0,0,0,0,0,0,0,0,0,0,0,0,0,0,0,
#END
