#HITDATA
#VERSION
1
#POINT
500,0
0,500
500,1000
1000,500
700,500
300,500
#END
#LINE
0,1,0
1,2,0
2,5,0
5,0,0
0,4,0
4,5,0
4,2,0
2,3,0
3,0,0
#END
#ANSER
5,0,1,2,5,4,2,3,0,4,
#QUEST
0,0,0,0,0,0,0,0,0,0,
#END
