#HITDATA
#VERSION
1
#POINT
258,258
442,258
558,258
742,258
742,442
742,558
742,742
558,742
442,742
258,742
258,558
258,442
137,137
863,137
863,863
137,863
14,863
137,986
863,986
986,863
986,137
863,14
137,14
14,137
442,442
442,558
558,558
558,442
#END
#LINE
0,1,0
1,2,0
2,3,0
3,4,0
4,5,0
5,6,0
6,7,0
7,8,0
8,9,0
9,10,0
10,11,0
11,0,0
1,24,0
24,25,0
25,8,0
7,26,0
26,27,0
27,2,0
11,24,0
24,27,0
27,4,0
5,26,0
26,25,0
25,10,0
15,10,1
8,15,1
14,7,1
5,14,1
13,4,1
2,13,1
12,1,1
11,12,1
15,16,1
17,15,1
14,18,1
19,14,1
13,20,1
21,13,1
12,22,1
23,12,1
23,16,0
17,18,0
19,20,0
21,22,0
#END
#ANSER
22,21,13,20,19,14,18,17,15,16,23,12,1,2,13,4,5,14,7,8,15,10,11,0,1,24,27,2,3,4,27,26,5,6,7,26,25,8,9,10,25,24,11,12,22,
#QUEST
0,0,0,0,0,0,1,0,0,0,0,0,0,0,0,0,0,0,0,0,0,0,0,0,0,0,0,0,0,1,0,0,0,0,0,0,0,0,0,0,0,0,0,0,0,
#END
