#HITDATA
#VERSION
1
#POINT
14,14
986,14
986,986
14,986
500,14
500,986
14,500
986,500
802,198
198,198
198,802
802,802
500,802
289,442
711,442
500,320
289,680
711,680
411,198
589,198
198,620
802,620
147,718
850,715
#END
#LINE
0,4,0
4,1,0
0,6,0
6,3,0
3,5,0
5,2,0
2,7,0
9,4,0
4,8,1
8,7,0
7,1,0
11,5,0
5,10,0
10,12,0
6,9,0
12,11,0
10,22,0
22,6,1
11,23,0
13,14,0
14,12,1
12,13,0
13,15,0
15,14,0
14,17,0
17,12,0
12,16,0
16,13,0
23,7,0
2,23,0
23,21,0
21,14,0
14,19,0
19,4,0
4,18,0
18,13,0
13,20,0
20,22,0
22,3,0
10,20,0
20,9,1
9,18,0
18,19,0
19,8,0
8,21,1
21,11,0
#END
#ANSER
3,6,0,4,1,7,2,5,3,22,6,9,4,8,7,23,11,5,10,22,20,9,18,19,8,21,11,12,10,20,13,15,14,17,12,16,13,14,12,13,18,4,19,14,21,23,2,
#QUEST
0,0,0,0,0,0,0,0,1,0,0,0,0,0,1,0,0,0,0,0,0,0,0,0,0,0,0,1,0,0,0,0,0,0,0,0,1,0,0,0,0,0,0,0,0,0,0,
#END
