#HITDATA
#VERSION
1
#POINT
500,9
9,500
500,991
991,500
846,154
846,357
643,154
357,154
154,154
154,357
154,643
154,846
357,846
643,846
846,846
846,643
#END
#LINE
0,7,0
9,7,1
9,1,0
1,10,0
12,10,1
12,2,0
2,13,0
13,15,0
15,3,0
3,5,0
6,5,1
6,0,0
6,7,1
6,4,0
4,5,0
5,15,0
15,14,0
14,13,0
12,13,1
12,11,0
11,10,0
9,10,1
9,8,0
8,7,0
7,12,0
12,6,0
6,13,0
13,7,0
9,5,0
5,10,0
10,15,0
15,9,0
#END
#ANSER
0,6,13,7,12,6,5,4,6,7,8,9,5,10,15,9,10,11,12,13,14,15,5,3,15,13,2,12,10,1,9,7,0,
#QUEST
0,0,0,0,0,0,0,0,0,0,0,0,0,0,0,0,0,0,0,0,0,0,0,0,0,0,0,0,0,0,0,0,0,
#END
